<?xml version='1.0' encoding='UTF-8'?>
<!-- This file was generated by dvisvgm 3.0.1 -->
<svg version='1.1' xmlns='http://www.w3.org/2000/svg' xmlns:xlink='http://www.w3.org/1999/xlink' width='149pt' height='115pt' viewBox='0 -115 149 115'>
<g id='page1'>
<g transform='scale(1 -1)'>
<g stroke='#000' fill='none' stroke-width='.8' stroke-linecap='round' stroke-linejoin='round'>
<path d='M90.7578 73.0313H91.6094'/>
<path d='M91.6094 73.0313V73.8789'/>
<path d='M91.6094 73.8789H90.7578'/>
<path d='M90.7578 73.8789V73.0313'/>
<path d='M91.6094 73.0313L92.1211 72.1445'/>
<path d='M92.1211 72.1445L93.0039 72.6563'/>
<path d='M93.0039 72.6563L92.4922 73.5391'/>
<path d='M92.4922 73.5391L91.6094 73.0313'/>
<path d='M92.1211 72.1445L91.5078 71.0859'/>
<path d='M91.5078 71.0859L92.5664 70.4727'/>
<path d='M92.5664 70.4727L93.1797 71.5313'/>
<path d='M93.1797 71.5313L92.1211 72.1445'/>
<path d='M91.5078 71.0859H90.0391'/>
<path d='M90.0391 71.0859V69.6133'/>
<path d='M90.0391 69.6133H91.5078'/>
<path d='M91.5078 69.6133V71.0859'/>
<path d='M90.0391 71.0859L89.1563 72.6133'/>
<path d='M89.1563 72.6133L87.6289 71.7305'/>
<path d='M87.6289 71.7305L88.5117 70.2031'/>
<path d='M88.5117 70.2031L90.0391 71.0859'/>
<path d='M89.1563 72.6133L90.2148 74.4453'/>
<path d='M90.2148 74.4453L88.3828 75.5039'/>
<path d='M88.3828 75.5039L87.3242 73.668'/>
<path d='M87.3242 73.668L89.1563 72.6133'/>
<path d='M90.2148 74.4453H92.7539'/>
<path d='M92.7539 74.4453V76.9844'/>
<path d='M92.7539 76.9844H90.2148'/>
<path d='M90.2148 76.9844V74.4453'/>
<path d='M92.7539 74.4453L94.2773 71.8047'/>
<path d='M94.2773 71.8047L96.9141 73.3281'/>
<path d='M96.9141 73.3281L95.3906 75.9688'/>
<path d='M95.3906 75.9688L92.7539 74.4453'/>
<path d='M94.2773 71.8047L92.4492 68.6406'/>
<path d='M92.4492 68.6406L95.6133 66.8125'/>
<path d='M95.6133 66.8125L97.4453 69.9766'/>
<path d='M97.4453 69.9766L94.2773 71.8047'/>
<path d='M92.4492 68.6406H88.0586'/>
<path d='M88.0586 68.6406V64.25'/>
<path d='M88.0586 64.25H92.4492'/>
<path d='M92.4492 64.25V68.6406'/>
<path d='M88.0586 68.6406L85.4297 73.1992'/>
<path d='M85.4297 73.1992L80.8672 70.5664'/>
<path d='M80.8672 70.5664L83.5 66.0078'/>
<path d='M83.5 66.0078L88.0586 68.6406'/>
<path d='M85.4297 73.1992L88.5859 78.6719'/>
<path d='M88.5859 78.6719L83.1133 81.832'/>
<path d='M83.1133 81.832L79.957 76.3594'/>
<path d='M79.957 76.3594L85.4297 73.1992'/>
<path d='M88.5859 78.6719H96.168'/>
<path d='M96.168 78.6719V86.2539'/>
<path d='M96.168 86.2539H88.5859'/>
<path d='M88.5859 86.2539V78.6719'/>
<path d='M96.168 78.6719L100.719 70.793'/>
<path d='M100.719 70.793L108.598 75.3398'/>
<path d='M108.598 75.3398L104.051 83.2188'/>
<path d='M104.051 83.2188L96.168 78.6719'/>
</g>
<path d='M100.719 70.793L108.652 76.0313L104.121 76.6836L101.289 80.2813L100.719 70.793' fill='#00f'/>
<g stroke='#000' fill='none' stroke-width='.8' stroke-linecap='round' stroke-linejoin='round'>
<path d='M100.719 70.793L95.2578 61.3359'/>
<path d='M95.2578 61.3359L104.715 55.875'/>
<path d='M104.715 55.875L110.176 65.332'/>
<path d='M110.176 65.332L100.719 70.793'/>
</g>
<path d='M95.2578 61.3359L103.762 57.0859L102.063 61.3359L103.762 65.5898L95.2578 61.3359' fill='#00f'/>
<g stroke='#000' fill='none' stroke-width='.8' stroke-linecap='round' stroke-linejoin='round'>
<path d='M95.2578 61.3359H82.1563'/>
<path d='M82.1563 61.3359V48.2344'/>
<path d='M82.1563 48.2344H95.2578'/>
<path d='M95.2578 48.2344V61.3359'/>
</g>
<path d='M82.1563 61.3359L82.7266 51.8438L85.5586 55.4453L90.0938 56.0977L82.1563 61.3359' fill='#00f'/>
<g stroke='#000' fill='none' stroke-width='.8' stroke-linecap='round' stroke-linejoin='round'>
<path d='M82.1563 61.3359L74.2969 74.9531'/>
<path d='M74.2969 74.9531L60.6797 67.0898'/>
<path d='M60.6797 67.0898L68.543 53.4727'/>
<path d='M68.543 53.4727L82.1563 61.3359'/>
</g>
<path d='M74.2969 74.9531L66.3633 69.7148L70.8945 69.0586L73.7266 65.4609L74.2969 74.9531' fill='#00f'/>
<g stroke='#000' fill='none' stroke-width='.8' stroke-linecap='round' stroke-linejoin='round'>
<path d='M74.2969 74.9531L83.7305 91.2891'/>
<path d='M83.7305 91.2891L67.3906 100.727'/>
<path d='M67.3906 100.727L57.957 84.3867'/>
<path d='M57.957 84.3867L74.2969 74.9531'/>
</g>
<path d='M83.7305 91.2891L75.2266 95.543L76.9258 91.2891L75.2266 87.0391L83.7305 91.2891' fill='#00f'/>
<g stroke='#000' fill='none' stroke-width='.8' stroke-linecap='round' stroke-linejoin='round'>
<path d='M83.7305 91.2891H106.371'/>
<path d='M106.371 91.2891V113.93'/>
<path d='M106.371 113.93H83.7305'/>
<path d='M83.7305 113.93V91.2891'/>
</g>
<path d='M106.371 91.2891L105.801 100.781L102.969 97.1836L98.4375 96.5313L106.371 91.2891' fill='#00f'/>
<g stroke='#000' fill='none' stroke-width='.8' stroke-linecap='round' stroke-linejoin='round'>
<path d='M106.371 91.2891L119.953 67.7617'/>
<path d='M119.953 67.7617L143.484 81.3477'/>
<path d='M143.484 81.3477L129.898 104.875'/>
<path d='M129.898 104.875L106.371 91.2891'/>
</g>
<path d='M119.953 67.7617L127.891 73L123.355 73.6563L120.523 77.2539L119.953 67.7617' fill='#00f'/>
<g stroke='#000' fill='none' stroke-width='.8' stroke-linecap='round' stroke-linejoin='round'>
<path d='M119.953 67.7617L103.652 39.5273'/>
<path d='M103.652 39.5273L131.887 23.2266'/>
<path d='M131.887 23.2266L148.188 51.4609'/>
<path d='M148.188 51.4609L119.953 67.7617'/>
</g>
<path d='M103.652 39.5273L112.156 35.2773L110.457 39.5273L112.156 43.7813L103.652 39.5273' fill='#00f'/>
<g stroke='#000' fill='none' stroke-width='.8' stroke-linecap='round' stroke-linejoin='round'>
<path d='M103.652 39.5273H64.5313'/>
<path d='M64.5313 39.5273V.40625'/>
<path d='M64.5313 .40625H103.652'/>
<path d='M103.652 .40625V39.5273'/>
</g>
<path d='M64.5313 39.5273L65.1016 30.0391L67.9336 33.6367L72.4648 34.2891L64.5313 39.5273' fill='#00f'/>
<g stroke='#000' fill='none' stroke-width='.8' stroke-linecap='round' stroke-linejoin='round'>
<path d='M64.5313 39.5273L41.0586 80.1836'/>
<path d='M41.0586 80.1836L.398438 56.7109'/>
<path d='M.398438 56.7109L23.875 16.0547'/>
<path d='M23.875 16.0547L64.5313 39.5273'/>
</g>
<path d='M41.0586 80.1836L33.1211 74.9453L37.6563 74.293L40.4883 70.6953L41.0586 80.1836' fill='#00f'/>
<path d='M90.7578 73.0313L82.2539 77.2813L83.957 73.0313L82.2539 68.7773L90.7578 73.0313' fill='#f00'/>
</g>
</g>
</svg>