<?xml version='1.0' encoding='UTF-8'?>
<!-- This file was generated by dvisvgm 3.0.1 -->
<svg version='1.1' xmlns='http://www.w3.org/2000/svg' xmlns:xlink='http://www.w3.org/1999/xlink' width='145pt' height='138pt' viewBox='0 -138 145 138'>
<g id='page1'>
<g transform='scale(1 -1)'>
<g stroke='#000' fill='none' stroke-width='.8' stroke-linecap='round' stroke-linejoin='round'>
<path d='M55.4375 85.0977H89.4531'/>
<path d='M89.4531 85.0977L99.9648 117.445'/>
<path d='M99.9648 117.445L72.4453 137.441'/>
<path d='M72.4453 137.441L44.9258 117.445'/>
<path d='M44.9258 117.445L55.4375 85.0977'/>
</g>
<path d='M89.4531 85.0977L90.8711 94.5L87.3516 91.5664L82.7813 91.8711L89.4531 85.0977' fill='#00f'/>
<g stroke='#000' fill='none' stroke-width='.8' stroke-linecap='round' stroke-linejoin='round'>
<path d='M89.4531 85.0977L99.9648 52.7461'/>
<path d='M99.9648 52.7461H133.98'/>
<path d='M133.98 52.7461L144.492 85.0977'/>
<path d='M144.492 85.0977L116.973 105.09'/>
<path d='M116.973 105.09L89.4531 85.0977'/>
</g>
<path d='M99.9648 52.7461L109.344 54.3047L105.469 56.7461L104.348 61.1836L99.9648 52.7461' fill='#00f'/>
<g stroke='#000' fill='none' stroke-width='.8' stroke-linecap='round' stroke-linejoin='round'>
<path d='M99.9648 52.7461L72.4453 32.7539'/>
<path d='M72.4453 32.7539L82.957 .402344'/>
<path d='M82.957 .402344H116.973'/>
<path d='M116.973 .402344L127.484 32.7539'/>
<path d='M127.484 32.7539L99.9648 52.7461'/>
</g>
<path d='M72.4453 32.7539L76.8281 24.3125L77.9492 28.7539L81.8242 31.1953L72.4453 32.7539' fill='#00f'/>
<g stroke='#000' fill='none' stroke-width='.8' stroke-linecap='round' stroke-linejoin='round'>
<path d='M72.4453 32.7539L44.9258 52.7461'/>
<path d='M44.9258 52.7461L17.4063 32.7539'/>
<path d='M17.4063 32.7539L27.918 .402344'/>
<path d='M27.918 .402344H61.9336'/>
<path d='M61.9336 .402344L72.4453 32.7539'/>
</g>
<path d='M44.9258 52.7461L38.2539 45.9727L42.8242 46.2773L46.3438 43.3438L44.9258 52.7461' fill='#00f'/>
<g stroke='#000' fill='none' stroke-width='.8' stroke-linecap='round' stroke-linejoin='round'>
<path d='M44.9258 52.7461L55.4375 85.0977'/>
<path d='M55.4375 85.0977L27.918 105.09'/>
<path d='M27.918 105.09L.398438 85.0977'/>
<path d='M.398438 85.0977L10.9102 52.7461'/>
<path d='M10.9102 52.7461H44.9258'/>
</g>
<path d='M55.4375 85.0977L46.9336 89.3477L48.6367 85.0977L46.9336 80.8438L55.4375 85.0977' fill='#00f'/>
<path d='M55.4375 85.0977L46.9336 89.3477L48.6367 85.0977L46.9336 80.8438L55.4375 85.0977' fill='#f00'/>
</g>
</g>
</svg>