<?xml version='1.0' encoding='UTF-8'?>
<!-- This file was generated by dvisvgm 3.0.1 -->
<svg version='1.1' xmlns='http://www.w3.org/2000/svg' xmlns:xlink='http://www.w3.org/1999/xlink' width='128pt' height='128pt' viewBox='0 -128 128 128'>
<g id='page1'>
<g transform='scale(1 -1)'>
<g stroke='#000' fill='none' stroke-width='.8' stroke-linecap='round' stroke-linejoin='round'>
<path d='M46.8672 93.332H80.8828'/>
<path d='M80.8828 93.332V127.348'/>
<path d='M80.8828 127.348H46.8672'/>
<path d='M46.8672 127.348V93.332'/>
</g>
<path d='M80.8828 93.332L80.3125 102.82L77.4805 99.2227L72.9492 98.5703L80.8828 93.332' fill='#00f'/>
<g stroke='#000' fill='none' stroke-width='.8' stroke-linecap='round' stroke-linejoin='round'>
<path d='M80.8828 93.332L97.8906 63.8711'/>
<path d='M97.8906 63.8711L127.348 80.8828'/>
<path d='M127.348 80.8828L110.34 110.34'/>
<path d='M110.34 110.34L80.8828 93.332'/>
</g>
<path d='M97.8906 63.8711L105.824 69.1133L101.289 69.7656L98.4609 73.3633L97.8906 63.8711' fill='#00f'/>
<g stroke='#000' fill='none' stroke-width='.8' stroke-linecap='round' stroke-linejoin='round'>
<path d='M97.8906 63.8711L80.8828 34.4141'/>
<path d='M80.8828 34.4141L110.34 17.4063'/>
<path d='M110.34 17.4063L127.348 46.8633'/>
<path d='M127.348 46.8633L97.8906 63.8711'/>
</g>
<path d='M80.8828 34.4141L89.3867 30.1641L87.6836 34.4141L89.3867 38.668L80.8828 34.4141' fill='#00f'/>
<g stroke='#000' fill='none' stroke-width='.8' stroke-linecap='round' stroke-linejoin='round'>
<path d='M80.8828 34.4141H46.8672'/>
<path d='M46.8672 34.4141V.398438'/>
<path d='M46.8672 .398438H80.8828'/>
<path d='M80.8828 .398438V34.4141'/>
</g>
<path d='M46.8672 34.4141L47.4375 24.9219L50.2695 28.5234L54.8008 29.1758L46.8672 34.4141' fill='#00f'/>
<g stroke='#000' fill='none' stroke-width='.8' stroke-linecap='round' stroke-linejoin='round'>
<path d='M46.8672 34.4141L29.8594 63.8711'/>
<path d='M29.8594 63.8711L.398438 46.8633'/>
<path d='M.398438 46.8633L17.4063 17.4063'/>
<path d='M17.4063 17.4063L46.8672 34.4141'/>
</g>
<path d='M29.8594 63.8711L21.9258 58.6328L26.457 57.9805L29.2891 54.3828L29.8594 63.8711' fill='#00f'/>
<g stroke='#000' fill='none' stroke-width='.8' stroke-linecap='round' stroke-linejoin='round'>
<path d='M29.8594 63.8711L46.8672 93.332'/>
<path d='M46.8672 93.332L17.4063 110.34'/>
<path d='M17.4063 110.34L.398438 80.8828'/>
<path d='M.398438 80.8828L29.8594 63.8711'/>
</g>
<path d='M46.8672 93.332L38.3633 97.5859L40.0625 93.332L38.3633 89.082L46.8672 93.332' fill='#00f'/>
<path d='M46.8672 93.332L38.3633 97.5859L40.0625 93.332L38.3633 89.082L46.8672 93.332' fill='#f00'/>
</g>
</g>
</svg>